{"status":"success","data":[{"listing_id":4198699,"property_url":"https://www.domain.com.au/2-70-duke-street-campsie-nsw-2194-4198699","address":"2/70 Duke Street, Campsie NSW 2194","suburb":"Campsie","state":"NSW","postcode":"2194","property_type":"Apartment / Unit / Flat","rent_pw":580,"bond":2320,"bedrooms":2,"bathrooms":1,"parking_spaces":1,"available_date":null,"inspection_times":null,"agency_name":"Montana Realty Campsie","agent_name":null,"agent_phone":"297892211","agent_email":null,"property_headline":"RENOVATED, SPACIOUS & CLOSE TO TRAIN & SHOPS!","latitude":-33.9136296,"longitude":151.107294,"images":["https://rimh2.domainstatic.com.au/KV0fyeaDXV35wYzmDZyaKaoY3es=/fit-in/1920x1080/filters:format(jpeg):quality(80):no_upscale()/w640-h480-4198699_1_pi_150213_053921"],"property_features":["Balcony / Deck","Bath","Close to schools","Close to shops","Close to transport","Intercom","Internal Laundry","Modern Kitchen","Undercover Parking","Quiet Location","Renovated","Secure Parking","Terrace/Balcony","Unfurnished","Built in wardrobes","Ensuite(s)"],"agent_profile_url":null,"agent_logo_url":null,"enquiry_form_action":null,"geom":"0101000020E6100000D3A1D3F36EE362402B5492D0F1F440C0","is_active":true,"created_at":"2025-08-21T01:55:51.376165+00:00","last_updated":"2025-08-21T01:55:51.376165+00:00","status":"new","status_changed_at":"2025-08-21T11:55:51.607886+00:00","cover_image":"https://rimh2.domainstatic.com.au/KV0fyeaDXV35wYzmDZyaKaoY3es=/fit-in/1920x1080/filters:format(jpeg):quality(80):no_upscale()/w640-h480-4198699_1_pi_150213_053921","furnishing_status":null,"air_conditioning_type":null,"has_air_conditioning":"unknown","is_furnished":"no","has_balcony":"yes","has_dishwasher":"unknown","has_laundry":"yes","has_built_in_wardrobe":"unknown","has_gym":"unknown","has_pool":"unknown","has_parking":"unknown","allows_pets":"unknown","has_security_system":"unknown","has_storage":"unknown","has_study_room":"unknown","has_garden":"unknown","has_gas_cooking":"unknown","has_heating":"unknown","has_intercom":"yes","has_lift":"unknown","has_garbage_disposal":"unknown","has_city_view":"unknown","has_water_view":"unknown","data_source":"new_crawler","updated_at":"2025-08-21T01:55:51.376165","description":"* VERY SPACIOUS 2 BR UNIT PLUS LOCK UP GARAGE.\r\n* AS NEW KITCHEN. * AS NEW TILED KITCHEN FLOOR.\r\n* AS NEW WARDROBES FOR BOTH BEDROOMS.* AS NEW PAINTING.\r\n* LARGE LOUNGE OPENING TO A BALCONY.\r\n* LARGE EAT IN KITCHEN, SUNNY, ARIRY & FACING CITY WITH OPEN VIEW.\r\n* INTERNAL LAUNDRY.* SECURITY INTERCOME BUILDING.\r\n* ONLY A FEW MINUTES WALK TO SCHOOLS, TRAIN STATION AND SHOPS.\r\n\r\nAVAILABLE 24/08/2025!"},{"listing_id":4366250,"property_url":"https://www.domain.com.au/4-103-darley-road-randwick-nsw-2031-4366250","address":"4/103 Darley Road, Randwick NSW 2031","suburb":"Randwick","state":"NSW","postcode":"2031","property_type":"Apartment / Unit / Flat","rent_pw":660,"bond":0,"bedrooms":1,"bathrooms":1,"parking_spaces":0,"available_date":null,"inspection_times":"Thursday, 21 Aug, 5:00pm - 5:15pm","agency_name":"Prime Property Partners","agent_name":"Amber New","agent_phone":"293985155","agent_email":"amber@prime-property.com.au","property_headline":"HUGE ART DECO 1 BEDROOM APARTMENT","latitude":-33.903234,"longitude":151.2399039,"images":["https://rimh2.domainstatic.com.au/tKTRpBbKMFeaWqiK2R7kejLVAuE=/fit-in/1920x1080/filters:format(jpeg):quality(80):no_upscale()/4366250_1_1_200618_031327-w1920-h1440","https://rimh2.domainstatic.com.au/r2bWRNLk_pVI5OHsbve4eU1mIos=/fit-in/1920x1080/filters:format(jpeg):quality(80):no_upscale()/4366250_2_1_200618_031327-w1920-h1440","https://rimh2.domainstatic.com.au/m_myG9OGZgxIXr0bisRlxYEwHLQ=/fit-in/1920x1080/filters:format(jpeg):quality(80):no_upscale()/4366250_3_1_200618_031327-w1920-h1440","https://rimh2.domainstatic.com.au/7U3kVBppUtpWw3Ev3yv0_Q9YJIc=/fit-in/1920x1080/filters:format(jpeg):quality(80):no_upscale()/4366250_4_1_200618_031327-w1920-h1440","https://rimh2.domainstatic.com.au/ZHP8lJfv1AtowauMpKPE4PRqURM=/fit-in/1920x1080/filters:format(jpeg):quality(80):no_upscale()/4366250_5_1_200618_031327-w1920-h1440","https://rimh2.domainstatic.com.au/Q5YKC0TT_mOn4Ci7xlWmJ2cAhF0=/fit-in/1920x1080/filters:format(jpeg):quality(80):no_upscale()/4366250_6_1_200618_031327-w1920-h1440","https://rimh2.domainstatic.com.au/owRV0AKOOi06jI3n82h-8rK6yOY=/fit-in/1920x1080/filters:format(jpeg):quality(80):no_upscale()/4366250_7_1_200618_031327-w1920-h1440","https://rimh2.domainstatic.com.au/PZkLyFYiCoPSyBUJMavyC9PYH1g=/fit-in/1920x1080/filters:format(jpeg):quality(80):no_upscale()/4366250_8_1_200618_031327-w1920-h1440","https://rimh2.domainstatic.com.au/hGg8P10inibVVCfJgKKSayQH6tE=/fit-in/1920x1080/filters:format(jpeg):quality(80):no_upscale()/4366250_10_1_190328_121306-w1920-h1440","https://rimh2.domainstatic.com.au/aLMbFZ2947skPeVXNrVwIDnkFs4=/fit-in/1920x1080/filters:format(jpeg):quality(80):no_upscale()/4366250_10_1_200618_031327-w1920-h1440","https://rimh2.domainstatic.com.au/izqPAZMceo8xCLRQzLToH1H7zKc=/fit-in/1920x1080/filters:format(jpeg):quality(80):no_upscale()/4366250_9_1_190328_121306-w1920-h1440","https://www.youtube.com/watch?v=oYFCjbd1GBg"],"property_features":null,"agent_profile_url":"https://www.domain.com.au/real-estate-agent/amber-new-580993","agent_logo_url":null,"enquiry_form_action":null,"geom":"0101000020E6100000DA95F14AADE762405051F52B9DF340C0","is_active":true,"created_at":"2025-08-21T01:55:51.376165+00:00","last_updated":"2025-08-21T01:55:51.376165+00:00","status":"new","status_changed_at":"2025-08-21T11:55:51.607886+00:00","cover_image":"https://rimh2.domainstatic.com.au/tKTRpBbKMFeaWqiK2R7kejLVAuE=/fit-in/1920x1080/filters:format(jpeg):quality(80):no_upscale()/4366250_1_1_200618_031327-w1920-h1440","furnishing_status":null,"air_conditioning_type":null,"has_air_conditioning":"unknown","is_furnished":"unknown","has_balcony":"unknown","has_dishwasher":"unknown","has_laundry":"unknown","has_built_in_wardrobe":"unknown","has_gym":"unknown","has_pool":"unknown","has_parking":"unknown","allows_pets":"unknown","has_security_system":"unknown","has_storage":"unknown","has_study_room":"unknown","has_garden":"unknown","has_gas_cooking":"unknown","has_heating":"unknown","has_intercom":"unknown","has_lift":"unknown","has_garbage_disposal":"unknown","has_city_view":"unknown","has_water_view":"unknown","data_source":"new_crawler","updated_at":"2025-08-21T01:55:51.376165","description":"This beautiful art-deco apartment with polished floorboards throughout is situated in a charming character filled boutique block opposite gorgeous Centennial Parklands.\n Features include a massive sized bedroom, a separate entrance hall with built in robe, an open plan eat in kitchen with gas cooking and a full bathroom with tub. There is a common shared laundry with coin operated machines provided and a large sunny communal garden where many of the residents gather to relax at the rear of the block.\n This is a great apartment block & an opportunity not to be missed. \n\n- Polished Floorboards Throughout\n- Eat in Kitchen\n- Built in robe\n- Communal Rear Garden\n- Gas Cooking"},{"listing_id":4864459,"property_url":"https://www.domain.com.au/101-6-lachlan-street-waterloo-nsw-2017-4864459","address":"101/6 Lachlan Street, Waterloo NSW 2017","suburb":"Waterloo","state":"NSW","postcode":"2017.0","property_type":"Apartment / Unit / Flat","rent_pw":760,"bond":0,"bedrooms":1,"bathrooms":1,"parking_spaces":1,"available_date":null,"inspection_times":null,"agency_name":"Tailored Property Sales ","agent_name":"Lawrence Mak","agent_phone":"411333882","agent_email":"lmak@tpsm.com.au","property_headline":"2 LEVELS - 1 BED + STUDY APARTMENT WITH PARKING, NEW PAINT","latitude":-33.9002939,"longitude":151.2126452,"images":["https://rimh2.domainstatic.com.au/6pIBBqBadSppZG-0k-n30BDpf44=/fit-in/1920x1080/filters:format(jpeg):quality(80):no_upscale()/4864459_1_1_250620_105109-w800-h600","https://rimh2.domainstatic.com.au/fN6EyTGMhLPCX_0yJBw_wkPSYLc=/fit-in/1920x1080/filters:format(jpeg):quality(80):no_upscale()/4864459_2_1_250619_070319-w800-h600","https://rimh2.domainstatic.com.au/CvdnMoM3BvSC9Un4NMAtDxbUlVA=/fit-in/1920x1080/filters:format(jpeg):quality(80):no_upscale()/4864459_3_1_250619_070319-w800-h600","https://rimh2.domainstatic.com.au/T6sKhQjr46rr46eptsdNbxeF0cQ=/fit-in/1920x1080/filters:format(jpeg):quality(80):no_upscale()/4864459_4_1_250620_105109-w800-h600","https://rimh2.domainstatic.com.au/_JKyYfHIJEJXYndHeMOXswJi3d4=/fit-in/1920x1080/filters:format(jpeg):quality(80):no_upscale()/4864459_5_1_250620_105109-w800-h600","https://rimh2.domainstatic.com.au/Ag7yl_vPVNsiRUW17f_3OMoQ1KY=/fit-in/1920x1080/filters:format(jpeg):quality(80):no_upscale()/4864459_6_1_250619_070319-w800-h600","https://rimh2.domainstatic.com.au/KlziuAON__7llj29Xw_Y4xmsgtg=/fit-in/1920x1080/filters:format(jpeg):quality(80):no_upscale()/4864459_7_1_250620_105109-w800-h600","https://rimh2.domainstatic.com.au/TXmnElk4uGm7f-UjupeaytG5iYI=/fit-in/1920x1080/filters:format(jpeg):quality(80):no_upscale()/4864459_8_1_250619_070319-w800-h600","https://rimh2.domainstatic.com.au/yKkU1vMoJjlxZPYu4f7kw2pzwis=/fit-in/1920x1080/filters:format(jpeg):quality(80):no_upscale()/4864459_6_1_200225_042712-w800-h600"],"property_features":["Intercom","In-ground Pool","In-ground Spa","Gas Heating","Gas Hot Water","Internal Laundry","Balcony","Building Security","Close to shops","Close to transport"],"agent_profile_url":"https://www.domain.com.au/real-estate-agent/lawrence-mak-581324","agent_logo_url":null,"enquiry_form_action":null,"geom":"0101000020E6100000D8744EFDCDE66240E7A49CD43CF340C0","is_active":true,"created_at":"2025-08-05T05:40:40.555175+00:00","last_updated":"2025-08-21T01:55:51.376165+00:00","status":"relisted","status_changed_at":"2025-08-21T11:56:00.420719+00:00","cover_image":"https://rimh2.domainstatic.com.au/6pIBBqBadSppZG-0k-n30BDpf44=/fit-in/1920x1080/filters:format(jpeg):quality(80):no_upscale()/4864459_1_1_250620_105109-w800-h600","furnishing_status":"unknown","air_conditioning_type":"general","has_air_conditioning":"yes","is_furnished":"unknown","has_balcony":"yes","has_dishwasher":"yes","has_laundry":"yes","has_built_in_wardrobe":"yes","has_gym":"yes","has_pool":"yes","has_parking":"yes","allows_pets":"unknown","has_security_system":"unknown","has_storage":"unknown","has_study_room":"yes","has_garden":"unknown","has_gas_cooking":"yes","has_heating":"yes","has_intercom":"yes","has_lift":"unknown","has_garbage_disposal":"unknown","has_city_view":"unknown","has_water_view":"unknown","data_source":"new_crawler","updated_at":"2025-08-05T05:40:40.555175","description":"Quality abounds in this fantastic ground floor - 2 levels one bedroom + study apartment featuring spacious light filled open plan living and dinning with plenty of natural light.\n\nModern European kitchen with stainless steel gas appliances including dishwasher and polished stone bench tops, plenty of cupboard space.\n\nLarge bedroom features mirrored built in wardrobes. \n\nOther features include internal laundry with dryer, underground security parking, security complex with audio visual intercom.\n\nTake advantage of the resort style facilities that include sauna and gym as well as full aquatic centre.\n\nAlso it can be use for both residential and commercial.\n\nPlease call Lawrence Mak on 0411 333 882 or 9557 8688 to arrange an inspection appointment.\n\n* All information contained herein is gathered from sources we consider to be reliable. However, we cannot guarantee its accuracy and interested persons should rely on their own enquiries.\n* Photography and illustrations are for presentation purposes only and should be regarded as indicative representations only."},{"listing_id":5672643,"property_url":"https://www.domain.com.au/pelican-street-surry-hills-nsw-2010-5672643","address":"Pelican Street, Surry Hills NSW 2010","suburb":"Surry Hills","state":"NSW","postcode":"2010.0","property_type":"Apartment / Unit / Flat","rent_pw":1050,"bond":2100,"bedrooms":1,"bathrooms":1,"parking_spaces":0,"available_date":null,"inspection_times":null,"agency_name":"TAS Realty","agent_name":null,"agent_phone":"299537288","agent_email":null,"property_headline":"Fully Furnished Apartment in Surry Hills","latitude":-33.8785473,"longitude":151.2132371,"images":["https://rimh2.domainstatic.com.au/R5sjxwM5OW2J6TqZduWHwAKr-bM=/fit-in/1920x1080/filters:format(jpeg):quality(80):no_upscale()/w416-h312-5672643_1_pi_150220_081028","https://rimh2.domainstatic.com.au/QxfYphkSihfx7gletYTX7OtZbfY=/fit-in/1920x1080/filters:format(jpeg):quality(80):no_upscale()/w416-h312-5672643_2_pi_150220_081028","https://rimh2.domainstatic.com.au/csma0WgogayeMIQ07sP-knUvHP4=/fit-in/1920x1080/filters:format(jpeg):quality(80):no_upscale()/w464-h337-5672643_3_pi_150220_081028","https://rimh2.domainstatic.com.au/Yh7Vofye6q60zw4sdLprA5GtVGI=/fit-in/1920x1080/filters:format(jpeg):quality(80):no_upscale()/w416-h312-5672643_4_pi_150220_081028","https://rimh2.domainstatic.com.au/ATMwPSkCNDkv3rhimtooLBt5c9c=/fit-in/1920x1080/filters:format(jpeg):quality(80):no_upscale()/w416-h312-5672643_5_pi_150220_081028","https://rimh2.domainstatic.com.au/4ukUQAQRL2r0cj0GcV7xpb_9Uao=/fit-in/1920x1080/filters:format(jpeg):quality(80):no_upscale()/w416-h312-5672643_6_pi_150220_081028","https://rimh2.domainstatic.com.au/6yv6M43NtT1-Y7nJmPTqSvtQ7JA=/fit-in/1920x1080/filters:format(jpeg):quality(80):no_upscale()/w416-h312-5672643_7_pi_150220_081028","https://rimh2.domainstatic.com.au/kmkGq9-M6XOR8W43sZ9XHRq6Bmc=/fit-in/1920x1080/filters:format(jpeg):quality(80):no_upscale()/w416-h312-5672643_8_pi_150220_081028"],"property_features":["Gas*","Gym*","Dishwasher*","Balcony / Deck*","Air conditioning","Close to schools","Close to shops","Close to transport","Furnished","Internal Laundry","Modern Bathroom","Modern Kitchen","Swimming Pool","Views"],"agent_profile_url":null,"agent_logo_url":null,"enquiry_form_action":null,"geom":"0101000020E610000067599CD6D2E662409BBEE83C74F040C0","is_active":false,"created_at":"2025-08-05T05:40:40.555175+00:00","last_updated":"2025-08-07T03:12:01.792865+00:00","status":"off-market","status_changed_at":"2025-08-07T13:12:02.381463+00:00","cover_image":"https://rimh2.domainstatic.com.au/R5sjxwM5OW2J6TqZduWHwAKr-bM=/fit-in/1920x1080/filters:format(jpeg):quality(80):no_upscale()/w416-h312-5672643_1_pi_150220_081028","furnishing_status":"furnished","air_conditioning_type":"general","has_air_conditioning":"yes","is_furnished":"yes","has_balcony":"yes","has_dishwasher":"yes","has_laundry":"yes","has_built_in_wardrobe":"unknown","has_gym":"yes","has_pool":"yes","has_parking":"unknown","allows_pets":"unknown","has_security_system":"unknown","has_storage":"unknown","has_study_room":"yes","has_garden":"unknown","has_gas_cooking":"yes","has_heating":"unknown","has_intercom":"unknown","has_lift":"yes","has_garbage_disposal":"unknown","has_city_view":"unknown","has_water_view":"unknown","data_source":"new_crawler","updated_at":"2025-08-05T05:40:40.555175","description":"Fully Furnished One Bedroom unit in great location, being minutes from Sydney's Famous Oxford Street. Enjoy all the cafes and restaurants, bars or great boutique shops all located within minutes of your front door. Close to transport and Sydney CBD. Enjoy the resort style facilities of outdoor garden, pool and water feature all located within the building.\r\n\nApartment includes One Bedroom with Balcony and views over the common areas, garden and pool. Great open plan living/dining area with plasma TV and side kitchenette. Other features are internal laundry and air conditioning. \r\n\nA Great apartment for an executive looking to be close to the action.\r\n\nApartment Features\r\n \n 1 bedrooms(s)\r\n \n 1 bathroom(s)\r\n \n 0 carpark(s)\r\n \n Swimming pool\r\n \n Air conditioning\r\n \n Executive style\r\n \n 1 Queen bed\r\n \n Sleeps 2 people\r\n \n Balcony\r\n \n Garden/ Patio\r\n \n Lift\r\n \n TV\r\n \n Fully equipped internal laundry\r\n \n Dishwasher\r\n \n Microwave\r\n \n Shower\r\n \n Linen and towels\r\n \n Hair-dryer\r\n \n Welcome pack\r\n \n Fully equipped kitchen\r\n \n Includes electricity and gas.\r\n \n DVD Player\r\n \n Garden and Pool View\r\n \n Common Garden Area with Outdoor Pool\r\n \n Gym\r\n\nCODE: PECAN"},{"listing_id":6055896,"property_url":"https://www.domain.com.au/4-48-mckern-st-campsie-nsw-2194-6055896","address":"4/48 Mckern St, Campsie NSW 2194","suburb":"Campsie","state":"NSW","postcode":"2194","property_type":"Apartment / Unit / Flat","rent_pw":600,"bond":2400,"bedrooms":2,"bathrooms":1,"parking_spaces":1,"available_date":null,"inspection_times":"Saturday, 23 Aug, 11:30am - 11:45am","agency_name":"Kims Realty Campsie","agent_name":"Stephen Cho","agent_phone":"429500709","agent_email":"stephen@kimsrealty.com.au","property_headline":"Newly renovated 2-bedroom unit with secured parking","latitude":-33.9174006,"longitude":151.0994065,"images":["https://rimh2.domainstatic.com.au/9NStX_f21aCRTLcwiKlisf03IAs=/fit-in/1920x1080/filters:format(jpeg):quality(80):no_upscale()/6055896_1_1_250820_124821-w1280-h960","https://rimh2.domainstatic.com.au/XvRqdrJezSy8uPmaL0gTW8WIOhE=/fit-in/1920x1080/filters:format(jpeg):quality(80):no_upscale()/6055896_2_1_250820_124821-w1280-h960","https://rimh2.domainstatic.com.au/ElQ6Ubn2RgFtjt8IRh6kXkk0mec=/fit-in/1920x1080/filters:format(jpeg):quality(80):no_upscale()/6055896_3_1_250820_124821-w1280-h960","https://rimh2.domainstatic.com.au/ZtoJy6krw3FZYnpIN9K66U3hAgs=/fit-in/1920x1080/filters:format(jpeg):quality(80):no_upscale()/6055896_4_1_250820_124911-w768-h1024","https://rimh2.domainstatic.com.au/ZT_ns2VznlfmbuI73a7xy-E2Ebk=/fit-in/1920x1080/filters:format(jpeg):quality(80):no_upscale()/6055896_5_1_250820_124911-w1280-h960","https://rimh2.domainstatic.com.au/jhslq-CAu9ZBCV47O0fCReh5_no=/fit-in/1920x1080/filters:format(jpeg):quality(80):no_upscale()/6055896_6_1_250820_124911-w768-h1024"],"property_features":["Alarm System","Bath","Close to schools","Close to shops","Close to transport","Secure Parking","Floorboards","Intercom","Built in wardrobes","Internal Laundry","Broadband internet access","Separate Dining Room","Balcony / Deck"],"agent_profile_url":"https://www.domain.com.au/real-estate-agent/stephen-cho-1998284","agent_logo_url":null,"enquiry_form_action":null,"geom":"0101000020E610000050508A562EE36240572A03626DF540C0","is_active":true,"created_at":"2025-08-21T01:55:51.376165+00:00","last_updated":"2025-08-21T01:55:51.376165+00:00","status":"new","status_changed_at":"2025-08-21T11:55:51.607886+00:00","cover_image":"https://rimh2.domainstatic.com.au/9NStX_f21aCRTLcwiKlisf03IAs=/fit-in/1920x1080/filters:format(jpeg):quality(80):no_upscale()/6055896_1_1_250820_124821-w1280-h960","furnishing_status":null,"air_conditioning_type":null,"has_air_conditioning":"unknown","is_furnished":"unknown","has_balcony":"yes","has_dishwasher":"unknown","has_laundry":"yes","has_built_in_wardrobe":"unknown","has_gym":"unknown","has_pool":"unknown","has_parking":"unknown","allows_pets":"unknown","has_security_system":"unknown","has_storage":"unknown","has_study_room":"unknown","has_garden":"unknown","has_gas_cooking":"unknown","has_heating":"unknown","has_intercom":"yes","has_lift":"unknown","has_garbage_disposal":"unknown","has_city_view":"unknown","has_water_view":"unknown","data_source":"new_crawler","updated_at":"2025-08-21T01:55:51.376165","description":"This newly renovated 2-bedrooms apartment that offers style, comfort and convenience is up for lease!\r\n\r\nProperty Features: \r\n- 2 spacious bedrooms with built-in wardrobes\r\n- Lock-up garage for secure parking\r\n- Freshly painted & new timber floors throughout\r\n- Alarm system & intercom\r\n- Internal laundry\r\n- Private balcony\r\n- Close to schools, shops & transport"}],"pagination":{"total":3456,"page":1,"page_size":5,"pages":692,"has_next":true,"has_prev":false,"next_cursor":null},"error":null}